<?xml version="1.0" encoding="UTF-8" standalone="no"?>
<svg
   xmlns:dc="http://purl.org/dc/elements/1.1/"
   xmlns:cc="http://creativecommons.org/ns#"
   xmlns:rdf="http://www.w3.org/1999/02/22-rdf-syntax-ns#"
   xmlns:svg="http://www.w3.org/2000/svg"
   xmlns="http://www.w3.org/2000/svg"
   xmlns:sodipodi="http://sodipodi.sourceforge.net/DTD/sodipodi-0.dtd"
   xmlns:inkscape="http://www.inkscape.org/namespaces/inkscape"
   width="600"
   height="600"
   id="svg2"
   version="1.1"
   inkscape:version="0.48.4 r9939"
   sodipodi:docname="daserste.svg">
  <defs
     id="defs15" />
  <sodipodi:namedview
     pagecolor="#ffffff"
     bordercolor="#666666"
     borderopacity="1"
     objecttolerance="10"
     gridtolerance="10"
     guidetolerance="10"
     inkscape:pageopacity="0"
     inkscape:pageshadow="2"
     inkscape:window-width="1680"
     inkscape:window-height="964"
     id="namedview13"
     showgrid="false"
     inkscape:zoom="0.39333333"
     inkscape:cx="300"
     inkscape:cy="289.83051"
     inkscape:window-x="0"
     inkscape:window-y="27"
     inkscape:window-maximized="1"
     inkscape:current-layer="svg2" />
  <metadata
     id="metadata3300">image/svg+xml<rdf:RDF>
  <cc:Work
     rdf:about="">
    <dc:format>image/svg+xml</dc:format>
    <dc:type
       rdf:resource="http://purl.org/dc/dcmitype/StillImage" />
  </cc:Work>
</rdf:RDF>
</metadata>
  <g
     id="g5"
     style="fill:#ffffff">
    <title
       id="title7">Layer 1</title>
    <g
       id="layer1"
       style="fill:#ffffff">
      <g
         id="g3090"
         style="fill:#ffffff">
        <path
           fill="#b3b5b7"
           fill-rule="evenodd"
           id="path3277"
           d="m116.151649,227.183121l302.780846,-108.755013l0,299.782463l-202.283386,70.523682l0,-222.898224l-100.497459,35.164886l0,-73.817795z"
           style="fill:#ffffff" />
        <path
           fill="#b3b5b7"
           id="path3279"
           d="m300,0.033275c-165.592529,0 -300.00003,134.407429 -300.00003,300.00005c0,165.592529 134.407455,299.966675 300.00003,299.966675c165.59256,0 300,-134.374146 300,-299.966675c0,-165.59256 -134.40744,-300.00005 -300,-300.00005zm-0.966248,39.948887c143.191986,0 259.418091,116.226105 259.418091,259.418137c0,143.191864 -116.226105,259.384674 -259.418091,259.384674c-143.191925,0 -259.418037,-116.19281 -259.418037,-259.384674c-0.000015,-143.192032 116.226112,-259.418137 259.418037,-259.418137z"
           style="fill:#ffffff" />
      </g>
    </g>
  </g>
</svg>
