<?xml version="1.0" encoding="UTF-8" standalone="no"?>
<!-- Created with Inkscape (http://www.inkscape.org/) -->

<svg
   xmlns:dc="http://purl.org/dc/elements/1.1/"
   xmlns:cc="http://creativecommons.org/ns#"
   xmlns:rdf="http://www.w3.org/1999/02/22-rdf-syntax-ns#"
   xmlns:svg="http://www.w3.org/2000/svg"
   xmlns="http://www.w3.org/2000/svg"
   version="1.0"
   width="600"
   height="281.39856"
   id="svg3295">
  <defs
     id="defs3297" />
  <metadata
     id="metadata3300">
    <rdf:RDF>
      <cc:Work
         rdf:about="">
        <dc:format>image/svg+xml</dc:format>
        <dc:type
           rdf:resource="http://purl.org/dc/dcmitype/StillImage" />
        <dc:title></dc:title>
      </cc:Work>
    </rdf:RDF>
  </metadata>
  <g
     transform="translate(-43.839734,-345.94861)"
     id="layer1">
    <g
       transform="matrix(0.50006961,0,0,0.50006961,-45.844625,306.23425)"
       id="g3288">
      <g
         transform="translate(-0.8544956,3.3650517e-6)"
         id="g3267"
         style="fill:#003257;fill-opacity:1">
        <path
           d="m 1103.3125,190.59375 0,349.25 c 0,0 62.5789,0 89.4063,0 162.2387,0 187.3124,-82.53679 187.3124,-175.84375 0,-84.2665 -26.2922,-173.40625 -187.3124,-173.40625 -26.8274,1e-5 -89.4063,0 -89.4063,0 z m 89.4063,75.15625 c 0,0 17.4595,10e-6 24.9374,0 57.1768,0 72.9689,54.11217 72.9688,100.84375 0,49.62997 -16.5249,101.65625 -68.6875,101.65625 -8.7597,0 -29.2188,0 -29.2187,0 l 0,-202.5 z"
           id="path2481"
           style="fill:#003257;fill-opacity:1;fill-rule:evenodd;stroke:none" />
        <path
           d="m 804.8125,190.59375 0,349.25 88.21875,0 0,-146.21875 103.78125,0 0,146.21875 88.2187,0 0,-349.25 -88.2187,0 0,125.6875 -103.78125,0 0,-125.6875 -88.21875,0 z"
           id="rect2490"
           style="fill:#003257;fill-opacity:1;stroke:none" />
      </g>
      <path
         d="m 288.28432,292.46524 283.98312,-102.00312 0,281.17095 -189.72489,66.14525 0,-209.05991 -94.25823,32.98178 0,-69.23495 z"
         id="path3277"
         style="fill:#003257;fill-opacity:1;fill-rule:evenodd;stroke:none" />
      <path
         d="m 460.71875,79.417663 c -155.31201,0 -281.375,126.062977 -281.375,281.374997 0,155.31201 126.06298,281.34372 281.375,281.34375 155.31201,0 281.37495,-126.03174 281.37495,-281.34375 0,-155.31201 -126.06294,-281.374997 -281.37495,-281.374997 z m -0.90625,37.468747 c 134.3021,0 243.3125,109.01039 243.3125,243.3125 0,134.30212 -109.01039,243.28125 -243.3125,243.28125 -134.30212,0 -243.3125,-108.97914 -243.3125,-243.28125 -1e-5,-134.30211 109.01039,-243.3125 243.3125,-243.3125 z"
         id="path3279"
         style="fill:#003257;fill-opacity:1;stroke:none" />
    </g>
  </g>
</svg>
