<?xml version="1.0" encoding="UTF-8" standalone="no"?>
<!-- Created with Inkscape (http://www.inkscape.org/) -->

<svg
   xmlns:dc="http://purl.org/dc/elements/1.1/"
   xmlns:cc="http://creativecommons.org/ns#"
   xmlns:rdf="http://www.w3.org/1999/02/22-rdf-syntax-ns#"
   xmlns:svg="http://www.w3.org/2000/svg"
   xmlns="http://www.w3.org/2000/svg"
   version="1.0"
   width="600"
   height="600"
   id="svg3295">
  <defs
     id="defs3297" />
  <metadata
     id="metadata3300">
    <rdf:RDF>
      <cc:Work
         rdf:about="">
        <dc:format>image/svg+xml</dc:format>
        <dc:type
           rdf:resource="http://purl.org/dc/dcmitype/StillImage" />
        <dc:title></dc:title>
      </cc:Work>
    </rdf:RDF>
  </metadata>
  <g
     transform="translate(115.4532,-186.63127)"
     id="layer1">
    <g
       transform="matrix(2.132089,0,0,2.132089,-208.92341,-550.9287)"
       id="g3090">
      <path
         d="m 98.317602,452.48723 142.011328,-51.00866 0,140.60505 -94.87565,33.07722 0,-104.5445 -47.135678,16.49318 0,-34.62229 z"
         id="path3277"
         style="fill:#003257;fill-opacity:1;fill-rule:evenodd;stroke:none" />
      <path
         d="m 184.54682,345.94861 c -77.66682,0 -140.707086,63.04026 -140.707086,140.70708 0,77.66682 63.040266,140.69145 140.707086,140.69146 77.66682,0 140.70706,-63.02464 140.70706,-140.69146 0,-77.66681 -63.04024,-140.70708 -140.70706,-140.70708 z m -0.45319,18.73698 c 67.1604,0 121.67319,54.51278 121.67319,121.67319 0,67.16041 -54.51278,121.65756 -121.67319,121.65756 -67.16041,0 -121.673184,-54.49716 -121.673184,-121.65756 -5e-6,-67.16041 54.512784,-121.67319 121.673184,-121.67319 z"
         id="path3279"
         style="fill:#003257;fill-opacity:1;stroke:none" />
    </g>
  </g>
</svg>
